<svg width="16" height="19" viewBox="0 0 16 19" fill="none" xmlns="http://www.w3.org/2000/svg">
<path d="M15.6452 18.4634V7.7989C15.6452 3.2781 12.9786 0.65062 8.3028 0.65062C4.0654 0.65062 1.2526 3.3167 0.777802 6.6784H6.1841C6.4398 5.9056 7.0608 5.4033 8.1202 5.4033C9.5083 5.4033 10.1293 6.3693 10.1293 7.4898V8.6104C9.4718 8.108 7.8645 7.6444 6.5129 7.6444C2.933 7.6444 0.193298 9.8082 0.193298 13.1698C0.193298 16.8406 2.933 18.7725 6.1841 18.7725C7.9375 18.7725 9.5813 18.1543 10.1293 17.5747V18.4634H15.6452ZM10.1293 13.5948C9.764 14.2904 8.7777 14.754 7.7183 14.754C6.5859 14.754 5.4535 14.2517 5.4535 13.0539C5.4535 11.8947 6.5859 11.3924 7.7183 11.3924C8.7777 11.3924 9.764 11.8561 10.1293 12.5902V13.5948Z" fill="#230B59"/>
</svg>
