<svg width="4" height="4" viewBox="0 0 4 4" fill="none" xmlns="http://www.w3.org/2000/svg">
<path d="M1.89982 0.550293C1.03635 0.550293 0.309204 1.28236 0.309204 2.15168C0.309204 3.02099 1.03635 3.75306 1.89982 3.75306C2.7633 3.75306 3.49044 3.02099 3.49044 2.15168C3.49044 1.28236 2.7633 0.550293 1.89982 0.550293Z" fill="#230B59"/>
</svg>
