<svg width="4" height="4" viewBox="0 0 4 4" fill="none" xmlns="http://www.w3.org/2000/svg">
<path d="M2.2653 0.276855C1.44727 0.276855 0.765564 0.963174 0.765564 1.78674C0.765564 2.61024 1.44727 3.29656 2.2653 3.29656C3.08333 3.29656 3.76503 2.61024 3.76503 1.78674C3.81047 0.963174 3.12877 0.276855 2.2653 0.276855Z" fill="#230B59"/>
</svg>
