<svg width="22" height="26" viewBox="0 0 22 26" fill="none" xmlns="http://www.w3.org/2000/svg">
<path d="M20.9583 24.4524L15.596 15.2102C18.4139 14.1121 20.2316 12.099 20.2316 8.43869V8.16419C20.2316 2.26197 15.3684 0.340332 10.0515 0.340332C7.55179 0.340332 3.68883 0.523332 1.91651 0.797901C1.23521 0.889401 0.826172 1.1639 0.826172 1.85022V24.4981C0.826172 24.8642 1.14448 25.1844 1.50748 25.1844H4.96135C5.32503 25.1844 5.59795 24.8642 5.59795 24.4981V15.9422C6.37068 15.988 9.14261 16.0795 10.0515 16.0795H10.8242L15.7775 24.4524C15.9596 24.7727 16.0958 25.1387 16.4594 25.1387H20.6407C20.9129 25.1387 21.0497 24.9557 21.0497 24.7269C21.0497 24.6354 21.0037 24.5439 20.9583 24.4524ZM15.4598 8.43869C15.4598 11.4584 13.5507 12.1447 10.0061 12.1447C9.41552 12.1447 6.09776 12.0532 5.55259 12.0532V4.59542C6.14314 4.50392 9.27872 4.45817 10.0061 4.45817C13.46 4.45817 15.4598 5.55624 15.4598 8.16419V8.43869Z" fill="#230B59"/>
</svg>
