<svg width="5" height="5" viewBox="0 0 5 5" fill="none" xmlns="http://www.w3.org/2000/svg">
<path d="M2.3127 0.825684C1.35834 0.825684 0.585754 1.6035 0.585754 2.56432C0.585754 3.52514 1.35834 4.30296 2.3127 4.30296C3.26706 4.30296 4.03964 3.52514 4.03964 2.56432C4.03964 1.6035 3.26706 0.825684 2.3127 0.825684Z" fill="#230B59"/>
</svg>
