<svg width="3" height="4" viewBox="0 0 3 4" fill="none" xmlns="http://www.w3.org/2000/svg">
<path d="M1.22222 0.869629C0.585958 0.869629 0.0406494 1.37288 0.0406494 2.0592C0.0406494 2.69977 0.540516 3.24876 1.22222 3.24876C1.85848 3.24876 2.40379 2.74552 2.40379 2.0592C2.40379 1.37288 1.85848 0.869629 1.22222 0.869629Z" fill="#230B59"/>
</svg>
