<svg width="4" height="4" viewBox="0 0 4 4" fill="none" xmlns="http://www.w3.org/2000/svg">
<path d="M1.85705 0.374512C1.12991 0.374512 0.493713 0.969261 0.493713 1.74708C0.493713 2.47915 1.08446 3.11971 1.85705 3.11971C2.5842 3.11971 3.22046 2.5249 3.22046 1.74708C3.17502 0.969261 2.5842 0.374512 1.85705 0.374512Z" fill="#230B59"/>
</svg>
