<svg width="3" height="3" viewBox="0 0 3 3" fill="none" xmlns="http://www.w3.org/2000/svg">
<path d="M1.45098 0.124512C0.814785 0.124512 0.269409 0.627829 0.269409 1.31415C0.269409 1.95465 0.769343 2.50372 1.45098 2.50372C2.13268 2.50372 2.63262 2.0004 2.63262 1.31415C2.63262 0.673579 2.08724 0.124512 1.45098 0.124512Z" fill="#230B59"/>
</svg>
