<svg width="6" height="5" viewBox="0 0 6 5" fill="none" xmlns="http://www.w3.org/2000/svg">
<path d="M3.17908 0.00830078C2.40649 0.00830078 1.67935 0.420048 1.2703 1.10637C0.861317 1.79268 0.861317 2.61618 1.2703 3.3025C1.67935 3.98882 2.36105 4.40057 3.17908 4.40057C4.36065 4.40057 5.36045 3.43976 5.36045 2.20444C5.36045 1.01487 4.40609 0.00830078 3.17908 0.00830078Z" fill="#230B59"/>
</svg>
