<svg width="3" height="3" viewBox="0 0 3 3" fill="none" xmlns="http://www.w3.org/2000/svg">
<path d="M1.35911 0.975098C0.859178 0.975098 0.450195 1.38692 0.450195 1.89017C0.450195 2.39349 0.859178 2.80523 1.35911 2.80523C1.85898 2.80523 2.26803 2.39349 2.26803 1.89017C2.26803 1.38692 1.85898 0.975098 1.35911 0.975098Z" fill="#230B59"/>
</svg>
