<svg width="6" height="7" viewBox="0 0 6 7" fill="none" xmlns="http://www.w3.org/2000/svg">
<path d="M2.99743 0.929688C1.54321 0.929688 0.361572 2.11926 0.361572 3.58339C0.361572 5.04746 1.54321 6.23703 2.99743 6.23703C4.45172 6.23703 5.63329 5.04746 5.63329 3.58339C5.63329 2.07351 4.45172 0.929688 2.99743 0.929688Z" fill="#230B59"/>
</svg>
