<svg width="5" height="4" viewBox="0 0 5 4" fill="none" xmlns="http://www.w3.org/2000/svg">
<path d="M2.44597 0.126465C1.44617 0.126465 0.673584 0.90428 0.673584 1.91085C0.673584 2.91742 1.44617 3.69524 2.44597 3.69524C3.44577 3.69524 4.21836 2.91742 4.21836 1.91085C4.21836 0.90428 3.44577 0.126465 2.44597 0.126465Z" fill="#230B59"/>
</svg>
