<svg width="5" height="5" viewBox="0 0 5 5" fill="none" xmlns="http://www.w3.org/2000/svg">
<path d="M2.35312 0.837402C1.62597 0.837402 0.898827 1.20347 0.535288 1.84397C0.17175 2.48454 0.17175 3.30811 0.535288 3.94867C0.898827 4.58917 1.62597 5.00099 2.35312 4.95524C3.48924 4.90949 4.35271 3.99442 4.35271 2.89636C4.35271 1.79822 3.48924 0.883152 2.35312 0.837402Z" fill="#230B59"/>
</svg>
