<svg width="21" height="21" viewBox="0 0 21 21" fill="none" xmlns="http://www.w3.org/2000/svg">
<path d="M16.302 0.246948H4.68102C2.23053 0.246948 0.244019 2.23346 0.244019 4.68395V16.3049C0.244019 18.7554 2.23053 20.7419 4.68102 20.7419H16.302C18.7525 20.7419 20.739 18.7554 20.739 16.3049V4.68395C20.739 2.23346 18.7525 0.246948 16.302 0.246948Z" fill="#4840BB"/>
</svg>
