<svg width="377" height="69" viewBox="0 0 377 69" fill="none" xmlns="http://www.w3.org/2000/svg">
<path opacity="0.8" d="M209.685 64.2178C177.368 69.9064 143.063 70.7577 101.882 64.9363C91.3262 63.4389 80.7845 61.8904 70.2571 60.291C24.8458 53.4986 -0.16834 49.754 -61.2451 52.1108L-61.1925 48.0168C0.409834 45.6286 25.5984 49.4036 71.3364 56.2617C81.854 57.8421 92.3797 59.3933 102.913 60.9154C202.294 74.9341 261.385 49.3581 350.854 10.7771C358.474 7.39349 366.326 4.09229 374.437 0.621178L376.375 4.22241C368.264 7.69264 360.433 11.1133 352.793 14.3784C299.336 37.5116 256.58 55.9633 209.685 64.2178Z" fill="url(#paint0_linear_1_774)"/>
<defs>
<linearGradient id="paint0_linear_1_774" x1="357.504" y1="405.062" x2="-40.1555" y2="231.656" gradientUnits="userSpaceOnUse">
<stop stop-color="#6EB4CC"/>
<stop offset="1" stop-color="#4941BC"/>
</linearGradient>
</defs>
</svg>
