<svg width="386" height="69" viewBox="0 0 386 69" fill="none" xmlns="http://www.w3.org/2000/svg">
<path opacity="0.8" d="M218.566 63.6725C186.249 69.3611 151.953 70.2646 110.807 64.6433C99.046 63.0303 88.679 61.5132 79.2077 60.1405C33.8326 53.5534 8.83469 49.9008 -52.2181 52.394L-52.1555 48.3566C9.42268 45.8312 34.5914 49.4938 80.293 56.1448C89.7399 57.5218 100.131 59.0346 111.845 60.656C211.129 74.2619 270.277 48.8729 359.829 10.6243C367.436 7.35242 375.294 3.99621 383.403 0.555611L385.331 4.10196L361.668 14.2056C308.241 37.0972 265.461 55.4179 218.566 63.6725Z" fill="url(#paint0_linear_1_778)"/>
<defs>
<linearGradient id="paint0_linear_1_778" x1="357.504" y1="354.062" x2="-40.1555" y2="180.656" gradientUnits="userSpaceOnUse">
<stop stop-color="#6EB4CC"/>
<stop offset="1" stop-color="#4941BC"/>
</linearGradient>
</defs>
</svg>
