<svg width="424" height="69" viewBox="0 0 424 69" fill="none" xmlns="http://www.w3.org/2000/svg">
<path opacity="0.8" d="M267.647 63.501C235.329 69.1896 201.037 70.1143 159.889 64.478C149.342 63.0281 138.809 61.5281 128.29 59.9778C82.937 53.3703 57.941 49.7412 -3.13819 52.2207L-3.07532 48.1851C58.5059 45.6765 83.6741 49.3365 129.375 55.9831C138.822 57.3592 149.209 58.8508 160.926 60.4916C260.205 74.0683 319.357 48.7032 408.907 10.4413C416.526 7.18918 424.365 3.81628 432.481 0.375264L434.41 3.91984C426.542 7.25649 418.684 10.6118 410.836 13.9857C357.325 36.9487 314.541 55.2464 267.647 63.501Z" fill="url(#paint0_linear_1_800)"/>
<defs>
<linearGradient id="paint0_linear_1_800" x1="357.504" y1="75.0619" x2="-40.1555" y2="-98.344" gradientUnits="userSpaceOnUse">
<stop stop-color="#6EB4CC"/>
<stop offset="1" stop-color="#4941BC"/>
</linearGradient>
</defs>
</svg>
