<svg width="370" height="41" viewBox="0 0 370 41" fill="none" xmlns="http://www.w3.org/2000/svg">
<path opacity="0.8" d="M202.985 36.1556C170.668 41.8442 136.36 42.676 95.1818 36.8741C83.4112 35.208 73.0361 33.6448 63.5572 32.2288C18.1459 25.4363 -6.87176 21.6714 -67.945 24.0486L-67.8924 19.9545C-6.28658 17.5858 18.8985 21.3413 64.6365 28.1995C74.0911 29.6198 84.4905 31.1787 96.2135 32.8532C195.597 46.8913 254.685 21.2958 344.158 -17.2656C351.778 -20.6484 359.629 -23.9505 367.741 -27.4207L369.679 -23.8195L346.027 -13.6521C292.64 9.46879 249.88 27.901 202.985 36.1556Z" fill="url(#paint0_linear_1_771)"/>
<defs>
<linearGradient id="paint0_linear_1_771" x1="357.504" y1="415.062" x2="-40.1555" y2="241.656" gradientUnits="userSpaceOnUse">
<stop stop-color="#6EB4CC"/>
<stop offset="1" stop-color="#4941BC"/>
</linearGradient>
</defs>
</svg>
