<svg width="399" height="69" viewBox="0 0 399 69" fill="none" xmlns="http://www.w3.org/2000/svg">
<path opacity="0.8" d="M231.952 63.7996C199.636 69.488 165.333 70.3371 124.157 64.5313C112.387 62.8642 102.013 61.2991 92.5336 59.883C47.1201 53.0654 22.1053 49.3172 -38.9641 51.6911L-38.9117 47.5961C22.688 45.2111 47.8761 48.9899 93.6116 55.8521C103.066 57.2725 113.461 58.8138 125.188 60.5087C224.542 74.5421 283.652 48.959 373.138 10.3669L396.727 0.250095L398.662 3.83186C390.799 7.19702 382.946 10.5812 375.104 13.9842C321.597 37.0907 278.867 55.5415 231.952 63.7996Z" fill="url(#paint0_linear_1_784)"/>
<defs>
<linearGradient id="paint0_linear_1_784" x1="357.504" y1="278.062" x2="-40.1555" y2="104.656" gradientUnits="userSpaceOnUse">
<stop stop-color="#6EB4CC"/>
<stop offset="1" stop-color="#4941BC"/>
</linearGradient>
</defs>
</svg>
