<svg width="56" height="28" viewBox="0 0 56 28" fill="none" xmlns="http://www.w3.org/2000/svg">
<path d="M54.9832 3.2525L50.1663 0.447256L47.7894 0.865645L43.4957 3.78977M34.4249 5.9559L37.6657 24.3674L34.4249 5.9559ZM18.0288 8.84198L21.2696 27.2535L18.0288 8.84198ZM1.43627 12.4708L3.59644 9.55721L7.29878 8.90552L11.5025 9.56549L34.6358 5.4935L1.43627 12.4708Z" stroke="white" stroke-width="0.8" stroke-miterlimit="10"/>
</svg>
