<svg width="20" height="20" viewBox="0 0 20 20" fill="none" xmlns="http://www.w3.org/2000/svg">
<path d="M0.0473175 9.94726C0.0473175 4.00208 3.82698 0.0385742 9.69901 0.0385742C15.571 0.0385742 19.283 4.07041 19.283 9.94726C19.283 15.8924 15.571 19.8559 9.69901 19.8559C3.82698 19.8559 0.0473175 15.8924 0.0473175 9.94726ZM12.6012 9.94726C12.6012 6.66716 11.5888 4.6171 9.56402 4.6171C7.5392 4.6171 6.59428 6.66716 6.59428 9.94726C6.59428 13.2274 7.5392 15.3458 9.56402 15.3458C11.5888 15.2774 12.6012 13.2274 12.6012 9.94726Z" fill="#230B59"/>
</svg>
